Last Update: 2024-02-27 03:12:14

IPv4:
  - 172.66.213.38      AFN      ircf.space    1708990934
  - 172.66.213.38      APT      ircf.space    1708990934
  - 172.66.213.38      ARX      ircf.space    1708990934
  - 172.66.213.38      ASK      ircf.space    1708990934
  - 104.21.51.208      AST      ircf.space    1708990934
  - 172.64.35.226      ATC      ircf.space    1708990934
  - 172.66.213.38      DBN      ircf.space    1708990934
  - 172.66.213.38      FNP      ircf.space    1708990934
  - 172.66.213.38      FNV      ircf.space    1708990934
  - 104.16.6.65        HWB      ircf.space    1708990934
  - 185.148.105.52     MBT      ircf.space    1708990934
  - 198.41.202.5       MBT      nazario.top    1708990934
  - 104.17.101.35      MBT      nazario.top    1708990934
  - 104.22.11.129      MBT      nazario.top    1708990934
  - 172.66.213.38      MCI      ircf.space    1708990934
  - 104.21.231.123     MCI      adihnrr.eu.org    1708990934
  - 104.17.232.114     MCI      adihnrr.eu.org    1708990934
  - 104.27.38.85       MCI      adihnrr.eu.org    1708990934
  - 104.18.72.191      MCI      adihnrr.eu.org    1708990934
  - 159.246.55.180     MCI      adihnrr.eu.org    1708990934
  - 104.16.29.8        MCI      adihnrr.eu.org    1708990934
  - 172.67.229.179     MCI      adihnrr.eu.org    1708990934
  - 172.65.188.62      MCI      adihnrr.eu.org    1708990934
  - 104.23.123.239     MCI      adihnrr.eu.org    1708990934
  - 104.20.2.1         MCI      adihnrr.eu.org    1708990934
  - 104.19.180.169     MCI      adihnrr.eu.org    1708990934
  - 104.27.196.92      MCI      adihnrr.eu.org    1708990934
  - 172.65.237.80      MCI      adihnrr.eu.org    1708990934
  - 104.20.149.108     MCI      adihnrr.eu.org    1708990934
  - 104.22.51.45       MCI      adihnrr.eu.org    1708990934
  - 104.17.20.55       MCI      adihnrr.eu.org    1708990934
  - 104.16.119.47      MCI      adihnrr.eu.org    1708990934
  - 104.17.225.199     MCI      adihnrr.eu.org    1708990934
  - 162.159.32.35      MCI      adihnrr.eu.org    1708990934
  - 104.24.255.191     MCI      adihnrr.eu.org    1708990934
  - 168.100.6.250      MCI      vcdn.online    1708990934
  - 104.31.16.213      MCI      vcdn.online    1708990934
  - 104.31.16.196      MCI      vcdn.online    1708990934
  - 168.100.6.249      MCI      vcdn.online    1708990934
  - 195.85.23.225      MCI      vcdn.online    1708990934
  - 199.59.243.225     MCI      ma7ta.online    1708990934
  - 104.24.24.243      MCI      boby66600.eu.org    1708990934
  - 104.16.32.142      MCI      boby66600.eu.org    1708990934
  - 104.25.35.227      MCI      boby66600.eu.org    1708990934
  - 104.25.92.198      MCI      boby66600.eu.org    1708990934
  - 104.19.244.250     MCI      boby66600.eu.org    1708990934
  - 104.24.194.105     MCI      boby66600.eu.org    1708990934
  - 172.64.162.23      MCI      boby66600.eu.org    1708990934
  - 172.65.137.125     MCI      boby66600.eu.org    1708990934
  - 172.65.57.200      MCI      boby66600.eu.org    1708990934
  - 104.16.72.175      MCI      boby66600.eu.org    1708990934
  - 172.65.14.217      MCI      boby66600.eu.org    1708990934
  - 172.64.106.208     MCI      boby66600.eu.org    1708990934
  - 104.19.240.189     MCI      boby66600.eu.org    1708990934
  - 104.24.183.89      MCI      boby66600.eu.org    1708990934
  - 104.16.169.7       MCI      boby66600.eu.org    1708990934
  - 172.67.32.82       MCI      boby66600.eu.org    1708990934
  - 104.25.33.15       MCI      boby66600.eu.org    1708990934
  - 172.65.92.30       MCI      boby66600.eu.org    1708990934
  - 104.16.106.32      MCI      boby66600.eu.org    1708990934
  - 172.65.29.31       MCI      boby66600.eu.org    1708990934
  - 104.20.251.248     MCI      boby66600.eu.org    1708990934
  - 104.16.206.227     MCI      boby66600.eu.org    1708990934
  - 104.27.1.129       MCI      boby66600.eu.org    1708990934
  - 104.19.75.119      MCI      boby66600.eu.org    1708990934
  - 104.20.66.92       MCI      boby66600.eu.org    1708990934
  - 104.25.235.38      MCI      boby66600.eu.org    1708990934
  - 104.27.101.40      MCI      boby66600.eu.org    1708990934
  - 104.20.9.79        MCI      boby66600.eu.org    1708990934
  - 104.27.96.222      MCI      boby66600.eu.org    1708990934
  - 104.19.99.238      MCI      boby66600.eu.org    1708990934
  - 104.27.1.133       MCI      boby66600.eu.org    1708990934
  - 104.18.71.193      MCI      boby66600.eu.org    1708990934
  - 104.21.198.255     MCI      boby66600.eu.org    1708990934
  - 104.18.190.52      MCI      boby66600.eu.org    1708990934
  - 104.17.47.58       MCI      boby66600.eu.org    1708990934
  - 172.67.84.174      MCI      boby66600.eu.org    1708990934
  - 104.24.189.34      MCI      boby66600.eu.org    1708990934
  - 104.18.40.89       MCI      boby66600.eu.org    1708990934
  - 104.24.225.78      MCI      boby66600.eu.org    1708990934
  - 172.68.118.177     MCI      boby66600.eu.org    1708990934
  - 104.16.183.101     MCI      boby66600.eu.org    1708990934
  - 104.17.80.176      MCI      boby66600.eu.org    1708990934
  - 104.16.8.3         MCI      boby66600.eu.org    1708990934
  - 104.25.99.169      MCI      boby66600.eu.org    1708990934
  - 172.64.150.2       MCI      boby66600.eu.org    1708990934
  - 172.71.165.178     MCI      boby66600.eu.org    1708990934
  - 104.20.151.9       MCI      boby66600.eu.org    1708990934
  - 104.24.145.43      MCI      boby66600.eu.org    1708990934
  - 104.22.4.136       MCI      boby66600.eu.org    1708990934
  - 104.27.65.143      MCI      boby66600.eu.org    1708990934
  - 172.65.181.102     MCI      boby66600.eu.org    1708990934
  - 104.27.203.169     MCI      boby66600.eu.org    1708990934
  - 104.25.225.41      MCI      boby66600.eu.org    1708990934
  - 104.23.113.202     MCI      boby66600.eu.org    1708990934
  - 104.20.21.111      MCI      boby66600.eu.org    1708990934
  - 104.24.160.221     MCI      boby66600.eu.org    1708990934
  - 104.27.5.173       MCI      boby66600.eu.org    1708990934
  - 104.24.161.123     MCI      boby66600.eu.org    1708990934
  - 104.16.246.91      MCI      boby66600.eu.org    1708990934
  - 104.22.38.61       MCI      boby66600.eu.org    1708990934
  - 104.27.97.42       MCI      boby66600.eu.org    1708990934
  - 172.71.160.32      MCI      boby66600.eu.org    1708990934
  - 104.20.181.114     MCI      boby66600.eu.org    1708990934
  - 104.16.250.250     MCI      boby66600.eu.org    1708990934
  - 104.27.115.85      MCI      boby66600.eu.org    1708990934
  - 172.65.9.134       MCI      boby66600.eu.org    1708990934
  - 172.65.64.243      MCI      boby66600.eu.org    1708990934
  - 172.67.214.41      MCI      boby66600.eu.org    1708990934
  - 104.25.64.147      MCI      boby66600.eu.org    1708990934
  - 172.67.123.23      MCI      boby66600.eu.org    1708990934
  - 104.24.84.148      MCI      boby66600.eu.org    1708990934
  - 104.27.122.56      MCI      boby66600.eu.org    1708990934
  - 172.65.229.187     MCI      boby66600.eu.org    1708990934
  - 104.24.154.5       MCI      boby66600.eu.org    1708990934
  - 104.21.33.129      MCI      boby66600.eu.org    1708990934
  - 104.21.55.49       MCI      boby66600.eu.org    1708990934
  - 104.21.93.170      MCI      boby66600.eu.org    1708990934
  - 104.21.211.74      MCI      boby66600.eu.org    1708990934
  - 104.17.229.103     MCI      boby66600.eu.org    1708990934
  - 104.18.10.128      MCI      boby66600.eu.org    1708990934
  - 172.68.62.168      MCI      boby66600.eu.org    1708990934
  - 104.27.97.174      MCI      boby66600.eu.org    1708990934
  - 104.22.51.241      MCI      boby66600.eu.org    1708990934
  - 104.25.193.8       MCI      boby66600.eu.org    1708990934
  - 104.25.63.151      MCI      boby66600.eu.org    1708990934
  - 104.24.1.69        MCI      boby66600.eu.org    1708990934
  - 104.17.42.10       MCI      hamedgeek.top    1708990934
  - 162.159.1.94       MCI      hamedgeek.top    1708990934
  - 104.17.88.212      MCI      hamedgeek.top    1708990934
  - 104.22.75.105      MCI      hamedgeek.top    1708990934
  - 104.16.219.230     MCI      hamedgeek.top    1708990934
  - 104.25.255.254     MCI      filna.cloud    1708990934
  - 188.114.99.29      MCI      filna.cloud    1708990934
  - 64.68.192.77       MCI      filna.cloud    1708990934
  - 104.31.16.65       MCI      ddns.net    1708990934
  - 104.16.4.103       MKH      ircf.space    1708990934
  - 104.20.156.248     MKH      filna.cloud    1708990934
  - 172.66.47.74       MKH      filna.cloud    1708990934
  - 104.25.255.254     MKH      filna.cloud    1708990934
  - 203.32.121.53      MTN      ircf.space    1708990934
  - 199.59.243.225     MTN      fastynet.cloud    1708990934
  - 45.95.241.94       MTN      vcdn.online    1708990934
  - 45.95.241.156      MTN      vcdn.online    1708990934
  - 45.95.241.150      MTN      vcdn.online    1708990934
  - 45.85.119.207      MTN      vcdn.online    1708990934
  - 191.101.251.190    MTN      vcdn.online    1708990934
  - 45.85.119.87       MTN      vcdn.online    1708990934
  - 172.234.25.151     MTN      ma7ta.online    1708990934
  - 104.19.54.50       MTN      hamedgeek.top    1708990934
  - 172.65.103.23      MTN      hamedgeek.top    1708990934
  - 172.65.223.246     MTN      hamedgeek.top    1708990934
  - 104.20.224.95      MTN      hamedgeek.top    1708990934
  - 104.27.62.243      MTN      hamedgeek.top    1708990934
  - 172.65.130.220     MTN      hamedgeek.top    1708990934
  - 104.24.185.137     MTN      hamedgeek.top    1708990934
  - 172.65.13.222      MTN      hamedgeek.top    1708990934
  - 104.22.13.192      MTN      hamedgeek.top    1708990934
  - 104.19.255.51      MTN      hamedgeek.top    1708990934
  - 188.114.96.2       MTN      goleshahr78.eu.org    1708990934
  - 188.114.97.2       MTN      goleshahr78.eu.org    1708990934
  - 104.16.6.65        PRS      ircf.space    1708990934
  - 172.64.35.226      PSM      ircf.space    1708990934
  - 104.16.6.65        PTK      ircf.space    1708990934
  - 162.159.62.69      RSP      ircf.space    1708990934
  - 162.251.82.187     RTL      ircf.space    1708990934
  - 104.18.220.84      RTL      filna.cloud    1708990934
  - 104.20.19.160      RTL      filna.cloud    1708990934
  - 104.18.53.172      RTL      filna.cloud    1708990934
  - 104.21.24.116      RTL      filna.cloud    1708990934
  - 162.159.250.246    RTL      filna.cloud    1708990934
  - 172.65.12.104      RTL      filna.cloud    1708990934
  - 104.25.134.44      RTL      filna.cloud    1708990934
  - 162.159.25.11      RTL      filna.cloud    1708990934
  - 172.66.213.38      RYN      ircf.space    1708990934
  - 104.20.62.55       SBN      ircf.space    1708990934
  - 104.31.16.136      SHM      ircf.space    1708990934
  - 160.153.0.179      SHT      ircf.space    1708990934
  - 104.20.77.131      SHT      adihnrr.eu.org    1708990934
  - 104.16.242.124     SHT      adihnrr.eu.org    1708990934
  - 104.26.192.144     SHT      adihnrr.eu.org    1708990934
  - 104.27.35.232      SHT      adihnrr.eu.org    1708990934
  - 104.24.172.243     SHT      adihnrr.eu.org    1708990934
  - 104.17.177.224     SHT      adihnrr.eu.org    1708990934
  - 8.44.0.49          SHT      adihnrr.eu.org    1708990934
  - 104.21.209.83      SHT      adihnrr.eu.org    1708990934
  - 104.22.60.6        SHT      adihnrr.eu.org    1708990934
  - 104.23.99.219      SHT      adihnrr.eu.org    1708990934
  - 104.24.137.130     SHT      adihnrr.eu.org    1708990934
  - 172.71.129.222     SHT      adihnrr.eu.org    1708990934
  - 104.27.23.251      SHT      adihnrr.eu.org    1708990934
  - 104.18.22.254      SHT      adihnrr.eu.org    1708990934
  - 104.20.75.10       SHT      adihnrr.eu.org    1708990934
  - 104.25.105.122     SHT      adihnrr.eu.org    1708990934
  - 172.65.20.231      SHT      adihnrr.eu.org    1708990934
  - 104.20.157.73      SHT      adihnrr.eu.org    1708990934
  - 172.67.26.173      SHT      adihnrr.eu.org    1708990934
  - 104.19.160.142     SHT      adihnrr.eu.org    1708990934
  - 45.142.120.54      SHT      vcdn.online    1708990934
  - 168.100.6.118      SHT      vcdn.online    1708990934
  - 104.31.16.181      SHT      vcdn.online    1708990934
  - 172.234.25.151     SHT      ma7ta.online    1708990934
  - 104.29.105.26      SHT      r-acc3ss.cloud    1708990934
  - 104.21.95.137      SHT      r-acc3ss.cloud    1708990934
  - 104.19.20.140      SHT      r-acc3ss.cloud    1708990934
  - 104.16.1.195       SHT      r-acc3ss.cloud    1708990934
  - 172.70.184.144     SHT      r-acc3ss.cloud    1708990934
  - 172.67.197.170     SHT      r-acc3ss.cloud    1708990934
  - 104.19.28.32       SHT      r-acc3ss.cloud    1708990934
  - 162.158.22.223     SHT      r-acc3ss.cloud    1708990934
  - 172.71.94.40       SHT      r-acc3ss.cloud    1708990934
  - 104.21.83.92       SHT      r-acc3ss.cloud    1708990934
  - 104.18.27.8        SHT      r-acc3ss.cloud    1708990934
  - 104.19.155.206     SHT      r-acc3ss.cloud    1708990934
  - 104.21.11.206      SHT      r-acc3ss.cloud    1708990934
  - 162.251.82.187     SMT      ircf.space    1708990934
  - 104.17.231.69      ZTL      ircf.space    1708990934
